…
We noticed that the mean of the page visits using the Opera browser in
the test group is 0, suggesting that it was problematic when visiting
the website with new features through the Opera browser. On the one
hand, we need to communicate with the engineering team to see if bugs
exist. On the other hand, we do not want to include users who used the
Opera browser for further analysis.

### Page visits by test/control group by date

    ## # A tibble: 62 x 3
    ## # Groups:   test [2]
    ##    test  date       mean_pages
    ##    <fct> <date>          <dbl>
    ##  1 0     2015-08-01       4.55
    ##  2 0     2015-08-02       4.49
    ##  3 0     2015-08-03       4.66
    ##  4 0     2015-08-04       4.57
    ##  5 0     2015-08-05       4.60
    ##  6 0     2015-08-06       4.58
    ##  7 0     2015-08-07       4.60
    ##  8 0     2015-08-08       4.73
    ##  9 0     2015-08-09       4.69
    ## 10 0     2015-08-10       4.65
    ## # … with 52 more rows
…
