…
### (3) Cluster ads into 3 groups: the ones whose avg\_cost\_per\_click is going up, the ones whose avg\_cost\_per\_click is flat and the ones whose avg\_cost\_per\_click is going down.

#### Step 1: Create wide format avg\_cost\_per\_click data set

#### Step 2: Convert to long format and regress avg\_cost\_per\_click on date

    ## # A tibble: 40 x 4
    ##    ad                 slp p_val cluster
    ##    <fct>            <dbl> <dbl> <chr>  
    ##  1 ad_group_1   0.000926  0.145 flat   
    ##  2 ad_group_10 -0.000158  0.862 flat   
    ##  3 ad_group_11 -0.00662   0.126 flat   
    ##  4 ad_group_12 -0.00305   0.427 flat   
    ##  5 ad_group_13 -0.000368  0.911 flat   
    ##  6 ad_group_14 -0.000772  0.165 flat   
    ##  7 ad_group_15  0.000406  0.533 flat   
    ##  8 ad_group_16 -0.000318  0.777 flat   
    ##  9 ad_group_17 -0.0000274 0.894 flat   
    ## 10 ad_group_18  0.000602  0.696 flat   
    ## # … with 30 more rows
…
